course,module,semester,startDate,credits,moduleexamid,visible,module_id,lecturer,lecturer_url,time,room,partial_compact_course,has_video_recording,video_recording_download_url,live_stream_offered,live_web_feed_url,interactive_live_stream,transmission_is_possible,comment,site,assistant,mode,transmission_room
Mining Theory wwtest 1,DataWare house ,SoSe 2015,02/05/2014,5,0,1,2,,,,,,,,,,,,,2,,lecture,
Sensor Study wwwwwwtest1,Sensor Study ,SoSe 2015,02/04/2015,4,,1,9,,,,,,,,,,,,,4,,lab,
