module,module_no,topic_category,visible,type,weekly_composition,exam,exam_duration,ECTS_credits,required_hours_of_work,required_work_in_hours,person_responsible,person_responsible_2,semester,teaching_methods,module_description,miscellaneous_Comments,recommended_prerequisite_knowledge,recommended_literature,outcomes,site,site_2,examId
Advanced Logics,1.06,Theoretical Foundations,1,,,,,5,,,,,WiSe 2015/16,,,,,,,1,,1025
Efficient Algorithms,1.08,Theoretical Foundations,1,,,,,6,,,,,WiSe 2015/16,,,,,,,1,,1015
Model Checking,1.13,Theoretical Foundations,1,,,,,6,,,,,WiSe 2015/16,,,,,,,2,,1065
Multi-Agent Systems,1.05,Theoretical Foundations,1,,,,,7,,,,,WiSe 2015/16,,,,,,,1,,1030
 Selected Topics in Artificial Intelligence,1.12,Theoretical Foundations,1,,,,,6,,,,,WiSe 2015/16,,,,,,,1,,1060
Model Checking,1.13,Theoretical Foundations,1,,,,,6,,,,,WiSe 2015/16,,,,,,,1,,1065
Formal Languages,1.09,Theoretical Foundations,1,,,,,6,,,,,SoSe 2015,,,,,,,4,,1010
Approximatioin Algorithms,1.14,Theoretical Foundations,1,,,,,6,,,,,SoSe 2015,,,,,,,1,,1070
Model Driven Software Engineering,1.16,Theoretical Foundations,1,,,,,5,,,,,SoSe 2015,,,,,,,2,,1080
Information Retrieval and Web Search Engines,2.02,Data and Information,1,,,,,5,,,,,WiSe 2015/16,,,,,,,2,,2075
Testing of Distributed Systems,2.08,Data and Information,1,,,,,5,,,,,WiSe 2015/16,,,,,,,3,,2045
Semantic Web,2.13,Data and Information,1,,,,,7,,,,,WiSe 2015/16,,,,,,,3,,2034
Parallel Computing,2.24,Data and Information,1,,,,,7,,,,,WiSe 2015/16,,,,,,,4,,3005
Formal Concept Analysis,2.27,Data and Information,1,,,,,6,,,,,WiSe 2015/16,,,,,,,4,,3040
Temporal Information Retrieval,2.34,Data and Information,1,,,,,6,,,,,WiSe 2015/16,,,,,,,1,,4040
Cooperative Systems Technologies,2.03,Data and Information,1,,,,,5,,,,,WiSe 2015/16,,,,,,,1,,2070
ComputerSupported Cooperative Work,2.04,Data and Information,1,,,,,6,,,,,WiSe 2015/16,,,,,,,1,,2065
Testing of Distributed Systems,2.08,Data and Information,1,,,,,5,,,,,WiSe 2015/16,,,,,,,2,,2045
Algorithms for Internet Applications,2.2,Data and Information,1,,,,,5,,,,,WiSe 2015/16,,,,,,,3,,2041
Selected Topics in Database Systems,2.21,Data and Information,1,,,,,5,,,,,WiSe 2015/16,,,,,,,2,,2031
Experience and Knowledge Management in Software Engineering,2.23,Data and Information,1,,,,,5,,,,,WiSe 2015/16,,,,,,,3,,2033
Advanced Topics in NOSQL Databases,2.3,Data and Information,1,,,,,5,,,,,WiSe 2015/16,,,,,,,1,,2043
Advanced Networking I,3.01,Networking and Communication,1,,,,,6,,,,,WiSe 2015/16,,,,,,,2,,3005
Introduction to Computer Security,3.12,Networking and Communication,1,,,,,5,,,,,WiSe 2015/16,,,,,,,3,,3040
Advanced Topics in Computer Networking I,3.06,Networking and Communication,1,,,,,5,,,,,WiSe 2015/16,,,,,,,4,,3055
Advanced Topics in Mobile Communications I,3.13,Networking and Communication,1,,,,,6,,,,,WiSe 2015/16,,,,,,,3,,3045
Selected Topics in Internet Technologies,3.16,Networking and Communication,1,,,,,6,,,,,WiSe 2015/16,,,,,,,3,,3052
Practical Course in Advanced Topics in Mobile Communication,3.18,Networking and Communication,1,,,,,5,,,,,WiSe 2015/16,,,,,,,4,,3047
Advanced Topics in Network Security II,3.19,Networking and Communication,1,,,,,5,,,,,WiSe 2015/16,,,,,,,3,,3016
Digital Systems,3.2,Networking and Communication,1,,,,,5,,,,,WiSe 2015/16,,,,,,,2,,3066
Recent Topics in Computer Networking,3.24,Networking and Communication,1,,,,,6,,,,,WiSe 2015/16,,,,,,,2,,3070
Geo-Information Systems,4.06,Business and Law,1,,,,,6,,,,,WiSe 2015/16,,,,,,,3,,4060
