first_name,last_name,password,email,title,visible,institute,institute_url,personal_website_url,photo_url,location,academic_career,occupation,Patents_intellectual_property,num_of_publications,selected_publications,activity,post_address,university,telephone,role_id
John,Smith,,thish6@gmail.com,Mr,1,Infomatik,,,,,,,,,,,,TU Braunschweig,,Studiendekan
Peter,Mic,,tthis927@gmail.com,Mr,1,Distributed Systems,,,,,,,,,,,,TU Clausthal,,Admin
Lina,Lisa,,thishanthc@gmail.com,ms,1,Infomatik,,,,,,,,,,,,University of Göttingen,,Coordinator
Tanja,Swift,,tthis@hotmail.com,ms,1,Embedded System,,,,,,,,,,,,TU Clausthal,,Professor
Joshep,jose,,tt14@tu-clausthal.de,Mr,1,Infomatik,,,,,,,,,,,,TU Braunschweig,,Candidate
fatema,fatema,,fatema080136@gmail.com,Mr,1,Network,,,,,,,,,,,,TU Clausthal,,Professor
vishnu,Vish,,v.vishnu89@hotmail.com,Mr,1,Embedded System,,,,,,,,,,,,TU Braunschweig,,Student
